-----BEGIN PGP SIGNATURE-----
Version: GnuPG v1.4.14 (GNU/Linux)

iQIcBAABCgAGBQJS2+heAAoJEJdo/TzEiBXylxkP/0mAluWeR4ERGFiC83vwSdoX
oR7xIDdFpYHKYMfL1jyj08aco3F38qII4qcmbqZb1/DzQ+NXNuhlouKM6a+bk513
CNf43jINi7AcuFIzkKoiXx1lKPDRBqXm6Yx8IPTHTamu1KzYwlT4IUGcqPN1zuiS
QHlREQo6XqgvQ3ApjFvIRV5Vp/z0fr6LP3Af3pHI+CpIhncOlrHoqKCbyI7MU8Oy
eYEeIZsuBjKXH0cyYLJHhjhk3z08Jx/5nbvnuh2DNRzzzaZaWv6JTNtNpDT8lWM7
OEngprFBJ3uMoOcbKlp96jazTvRhGBIy6q1znbbHsiaHcyZ440Ol8o9sw1S9lU6E
+mWr4sSE3NseTha486p+mQWw4UL89Yt11X8nj9UzFh1cq8osEwT1Aqxv/Szs4bcK
THE4PAHtllkH40GM/BrSOOttmJt/h2LplLaGB8zhru1h8tYi5WMDgEAVM+B5ovmJ
ubrjD37PqWbhb+PRix5T7eIlFVZdyswFoOixgTzPVp+ypSEv9ACbIJUPt8Pq279N
xXkY9J1D/4xL5nKoC1sNIdPtsi+QAj83xAd9JxTJxwlFINj1wsYQfz8MHFNG82/r
//eYTl+QVMVdnDEhUt2LNrvNmgWFK3es+ntPnj/4a6cTX0T9q1hNPlP+Dj3nOOki
RpSx+KtX+6VBy9P6E2xz
=lpQP
-----END PGP SIGNATURE-----
